Q._91_8({"page":{"count":33,"curpage":1,"cursor":0,"first":1,"next":2,"pagecount":2,"pagesize":20,"prev":0,"query":{"bookId":"2507572","callback":"Q._91_8081_0","commentType":"all","jsonp":"Q._91_8","order":"1","page":"1","pagesize":"20"},"result":[{"childResourceId":0,"childResourceInfo":"","contentId":27688244,"creationDate":1524390145000,"deviceInfo":"","formart":true,"groupId":2230650,"id":21310772,"isAuthor":0,"isEnabled":1,"isLong":0,"isPrime":0,"isTop":0,"lastAuthorReplyId":0,"lastReplyDate":1524390145000,"marks":{"headImgUrl":"http://img.17k.com/user/images/avatar/default_10.jpg","isSubMonth":0,"nickName":"sivbnebk","nikeName":"sivbnebk","userId":60351590,"vipLevel":0},"platformId":0,"replyCount":0,"resourceId":2507572,"stateId":1,"summary":"&nbsp; 陨霄 &nbsp;鬼祟佛途 &nbsp;","targetId":0,"title":"&nbsp; 陨霄 &nbsp;鬼祟佛途","typeId":1,"userId":60351590},{"childResourceId":0,"childResourceInfo":"","contentId":27469364,"creationDate":1522748083000,"deviceInfo":"0","formart":true,"groupId":2230650,"id":21156660,"isAuthor":0,"isEnabled":1,"isLong":0,"isPrime":0,"isTop":0,"lastAuthorReplyId":0,"lastReplyDate":1522748083000,"marks":{"endScore":3328,"headImgUrl":"http://img.17k.com/avatar/2017/471/58211471/20171030103359191-1509330839000_50.jpg","imgUrl":"http://img.17k.com/fensi/lv02.gif","isSubMonth":0,"level":2,"monthEndTime":"2018-05-28 13:41:58","nickName":"%E9%9C%9C%E5%8D%8E%E6%9C%AA%E6%9F%93%E7%9B%B8%E6%80%9D%E9%95%BF","nikeName":"霜华未染相思长","title":"弟子","userId":58211471,"vipLevel":3},"platformId":2,"replyCount":0,"resourceId":2507572,"stateId":1,"summary":"好棒，催更╭(╯^╰)╮","targetId":0,"title":"好棒，催更╭(╯^╰)╮","typeId":1,"userId":58211471},{"childResourceId":0,"childResourceInfo":"","contentId":27393076,"creationDate":1521476370000,"deviceInfo":"","formart":true,"groupId":2230650,"id":21108788,"isAuthor":0,"isEnabled":1,"isLong":0,"isPrime":0,"isTop":0,"lastAuthorReplyId":0,"lastReplyDate":1521476370000,"marks":{"headImgUrl":"http://img.17k.com/avatar/2016/469/49673469/20160916193520983-1517117785000_50.jpg","isSubMonth":0,"nickName":"%E4%B8%83%E4%B8%83%E5%B1%85%E5%A3%AB","nikeName":"七七居士","userId":49673469,"vipLevel":0},"platformId":0,"replyCount":0,"resourceId":2507572,"stateId":1,"summary":"<a target='_blank' href='http://www.17k.com/book/2792619.html'>《熟女的品格》</a>来访支持","targetId":0,"title":"《熟女的品格》来访支持","typeId":1,"userId":49673469},{"childResourceId":0,"childResourceInfo":"","contentId":27392564,"creationDate":1521465072000,"deviceInfo":"","formart":true,"groupId":2230650,"id":21108276,"isAuthor":0,"isEnabled":1,"isLong":0,"isPrime":0,"isTop":0,"lastAuthorReplyId":0,"lastReplyDate":1521465072000,"marks":{"headImgUrl":"http://img.17k.com/avatar/2016/577/49325577/20160827131100391-1526697367000_50.jpg","isSubMonth":0,"monthEndTime":"2018-01-10 12:20:08","nickName":"%E7%AD%B1%E7%AD%B1%E7%AD%B1%E7%AD%B1%E5%BD%B1","nikeName":"筱筱筱筱影","userId":49325577,"vipLevel":0},"platformId":0,"replyCount":0,"resourceId":2507572,"stateId":1,"summary":"<a target='_blank' href='http://www.17k.com/book/2670624.html'>《罪罚因果》</a>来访支持&nbsp;","targetId":0,"title":"《罪罚因果》来访支持&nbsp;","typeId":1,"userId":49325577},{"childResourceId":0,"childResourceInfo":"","contentId":27234868,"creationDate":1518008739000,"deviceInfo":"","formart":true,"groupId":2230650,"id":20971316,"isAuthor":0,"isEnabled":1,"isLong":0,"isPrime":0,"isTop":0,"lastAuthorReplyId":0,"lastReplyDate":1518008739000,"marks":{"headImgUrl":"http://img.17k.com/user/images/avatar/default_16.jpg","isSubMonth":1,"monthEndTime":"2105-01-09 00:00:00","nickName":"%E4%B8%BA%E6%88%91%E5%81%9C%E7%95%99","nikeName":"为我停留","userId":23015616,"vipLevel":3},"platformId":2,"replyCount":0,"resourceId":2507572,"stateId":1,"summary":"终于等到更新了！","targetId":0,"title":"终于等到更新了！","typeId":1,"userId":9523252},{"childResourceId":0,"childResourceInfo":"","contentId":27231028,"creationDate":1517919493000,"deviceInfo":"","formart":true,"groupId":2230650,"id":20968244,"isAuthor":0,"isEnabled":1,"isLong":0,"isPrime":0,"isTop":0,"lastAuthorReplyId":0,"lastReplyDate":1517919493000,"marks":{"headImgUrl":"http://img.17k.com/user/images/avatar/default_16.jpg","isSubMonth":1,"monthEndTime":"2105-01-09 00:00:00","nickName":"%E4%B8%BA%E6%88%91%E5%81%9C%E7%95%99","nikeName":"为我停留","userId":23015616,"vipLevel":3},"platformId":2,"replyCount":0,"resourceId":2507572,"stateId":1,"summary":"大大，怎么断更了？难道开始放年假了吗&#55357;&#56876;&#55357;&#56876;&#55357;&#56876;","targetId":0,"title":"大大，怎么断更了？难道开始放年假了吗&#55357;&#56876;","typeId":1,"userId":9523252},{"childResourceId":0,"childResourceInfo":"","contentId":27151668,"creationDate":1516444590000,"deviceInfo":"","formart":true,"groupId":2230650,"id":20904244,"isAuthor":0,"isEnabled":1,"isLong":0,"isPrime":0,"isTop":0,"lastAuthorReplyId":0,"lastReplyDate":1516444590000,"marks":{"endScore":3328,"headImgUrl":"http://img.17k.com/avatar/2017/471/58211471/20171030103359191-1509330839000_50.jpg","imgUrl":"http://img.17k.com/fensi/lv02.gif","isSubMonth":0,"level":2,"monthEndTime":"2018-05-28 13:41:58","nickName":"%E9%9C%9C%E5%8D%8E%E6%9C%AA%E6%9F%93%E7%9B%B8%E6%80%9D%E9%95%BF","nikeName":"霜华未染相思长","title":"弟子","userId":58211471,"vipLevel":3},"platformId":2,"replyCount":0,"resourceId":2507572,"stateId":1,"summary":"大大，你咋还没有更新嘞&#55357;&#56877;&#55357;&#56877;&#55357;&#56877;","targetId":0,"title":"大大，你咋还没有更新嘞&#55357;&#56877;&#55357;&#56877;&#55357;&#56877;","typeId":1,"userId":58211471},{"childResourceId":0,"childResourceInfo":"","contentId":27056180,"creationDate":1515159579000,"deviceInfo":"","formart":true,"groupId":2230650,"id":20850228,"isAuthor":0,"isEnabled":1,"isLong":0,"isPrime":0,"isTop":0,"lastAuthorReplyId":0,"lastReplyDate":1515159579000,"marks":{"headImgUrl":"http://img.17k.com/avatar/2018/967/52703967/20180115140752593-1519229275000_50.jpg","isSubMonth":0,"monthEndTime":"2018-04-03 19:20:21","nickName":"%E5%B2%A9%E6%B3%8A","nikeName":"岩泊","userId":52703967,"vipLevel":2},"platformId":2,"replyCount":0,"resourceId":2507572,"stateId":1,"summary":"文笔真好，早日成神！<a target='_blank' href='http://www.17k.com/book/2388836.html'>《羣仙魔影》</a><a target='_blank' href='http://www.17k.com/book/2347646.html'>《美丽无界》</a>来访，欢迎您前去溜达溜达","targetId":0,"title":"文笔真好，早日成神！《羣仙魔影》《美丽无","typeId":1,"userId":52703967},{"childResourceId":0,"childResourceInfo":"","contentId":27049524,"creationDate":1515056524000,"deviceInfo":"","formart":true,"groupId":2230650,"id":20844340,"isAuthor":0,"isEnabled":1,"isLong":0,"isPrime":0,"isTop":0,"lastAuthorReplyId":0,"lastReplyDate":1515056524000,"marks":{"endScore":3328,"headImgUrl":"http://img.17k.com/avatar/2017/471/58211471/20171030103359191-1509330839000_50.jpg","imgUrl":"http://img.17k.com/fensi/lv02.gif","isSubMonth":0,"level":2,"monthEndTime":"2018-05-28 13:41:58","nickName":"%E9%9C%9C%E5%8D%8E%E6%9C%AA%E6%9F%93%E7%9B%B8%E6%80%9D%E9%95%BF","nikeName":"霜华未染相思长","title":"弟子","userId":58211471,"vipLevel":3},"platformId":2,"replyCount":0,"resourceId":2507572,"stateId":1,"summary":"作者大大要时刻记得，有读者在等你更文&#55358;&#56600;&#55358;&#56600;&#55358;&#56600;&#55358;&#56600;","targetId":0,"title":"作者大大要时刻记得，有读者在等你更文&#55358;&#56600;","typeId":1,"userId":58211471},{"childResourceId":0,"childResourceInfo":"","contentId":27049268,"creationDate":1515055146000,"deviceInfo":"","formart":true,"groupId":2230650,"id":20844084,"isAuthor":0,"isEnabled":1,"isLong":0,"isPrime":0,"isTop":0,"lastAuthorReplyId":0,"lastReplyDate":1515055146000,"marks":{"endScore":3328,"headImgUrl":"http://img.17k.com/avatar/2017/471/58211471/20171030103359191-1509330839000_50.jpg","imgUrl":"http://img.17k.com/fensi/lv02.gif","isSubMonth":0,"level":2,"monthEndTime":"2018-05-28 13:41:58","nickName":"%E9%9C%9C%E5%8D%8E%E6%9C%AA%E6%9F%93%E7%9B%B8%E6%80%9D%E9%95%BF","nikeName":"霜华未染相思长","title":"弟子","userId":58211471,"vipLevel":3},"platformId":2,"replyCount":0,"resourceId":2507572,"stateId":1,"summary":"果然一物降一物哈&#55357;&#56842;","targetId":0,"title":"果然一物降一物哈&#55357;&#56842;","typeId":1,"userId":58211471},{"childResourceId":0,"contentId":27048244,"creationDate":1515039459000,"formart":true,"groupId":2230650,"id":20843060,"isAuthor":0,"isEnabled":1,"isLong":0,"isPrime":0,"isTop":0,"lastAuthorReplyId":0,"lastReplyDate":1515039459000,"marks":{"headImgUrl":"http://img.17k.com/avatar/2017/954/51569954/20170913185743476-1505300263000_50.jpg","isSubMonth":0,"monthEndTime":"2018-01-05 23:26:34","nickName":"%E8%81%96%E6%83%85","nikeName":"聖情","userId":51569954,"vipLevel":0},"platformId":4,"replyCount":0,"resourceId":2507572,"stateId":1,"summary":"中午好，看书支持！","targetId":0,"title":"中午好，看书支持！","typeId":1,"userId":51569954},{"childResourceId":0,"childResourceInfo":"","contentId":27047220,"creationDate":1514990548000,"deviceInfo":"","formart":true,"groupId":2230650,"id":20842292,"isAuthor":0,"isEnabled":1,"isLong":0,"isPrime":0,"isTop":0,"lastAuthorReplyId":0,"lastReplyDate":1514990548000,"marks":{"endScore":3328,"headImgUrl":"http://img.17k.com/avatar/2017/471/58211471/20171030103359191-1509330839000_50.jpg","imgUrl":"http://img.17k.com/fensi/lv02.gif","isSubMonth":0,"level":2,"monthEndTime":"2018-05-28 13:41:58","nickName":"%E9%9C%9C%E5%8D%8E%E6%9C%AA%E6%9F%93%E7%9B%B8%E6%80%9D%E9%95%BF","nikeName":"霜华未染相思长","title":"弟子","userId":58211471,"vipLevel":3},"platformId":2,"replyCount":0,"resourceId":2507572,"stateId":1,"summary":"继续催更！！！","targetId":0,"title":"继续催更！！！","typeId":1,"userId":58211471},{"childResourceId":0,"childResourceInfo":"","contentId":27041332,"creationDate":1514906136000,"deviceInfo":"","formart":true,"groupId":2230650,"id":20838196,"isAuthor":0,"isEnabled":1,"isLong":0,"isPrime":0,"isTop":0,"lastAuthorReplyId":0,"lastReplyDate":1514906136000,"marks":{"endScore":4830,"headImgUrl":"http://img.17k.com/user/images/avatar/default_3.jpg","imgUrl":"http://img.17k.com/fensi/lv02.gif","isSubMonth":0,"level":2,"monthEndTime":"2017-10-05 22:20:22","nickName":"17K%E4%B9%A6%E5%8F%8Bo462mlvl","nikeName":"17K书友o462mlvl","title":"弟子","userId":57295403,"vipLevel":1},"platformId":0,"replyCount":0,"resourceId":2507572,"stateId":1,"summary":"[打赏]我打赏了2元红包！！","targetId":0,"title":"<span style='color:red'>[打赏]我打赏了2元红包！</span>","typeId":1,"userId":57295403},{"childResourceId":0,"childResourceInfo":"","contentId":27039284,"creationDate":1514895551000,"deviceInfo":"","formart":true,"groupId":2230650,"id":20837172,"isAuthor":0,"isEnabled":1,"isLong":0,"isPrime":0,"isTop":0,"lastAuthorReplyId":0,"lastReplyDate":1514895551000,"marks":{"endScore":3328,"headImgUrl":"http://img.17k.com/avatar/2017/471/58211471/20171030103359191-1509330839000_50.jpg","imgUrl":"http://img.17k.com/fensi/lv02.gif","isSubMonth":0,"level":2,"monthEndTime":"2018-05-28 13:41:58","nickName":"%E9%9C%9C%E5%8D%8E%E6%9C%AA%E6%9F%93%E7%9B%B8%E6%80%9D%E9%95%BF","nikeName":"霜华未染相思长","title":"弟子","userId":58211471,"vipLevel":3},"platformId":2,"replyCount":0,"resourceId":2507572,"stateId":1,"summary":"催更！ 催更！ 催更！ 重要的事说三遍！&#55358;&#56596;&#55358;&#56596;&#55358;&#56596;&#55358;&#56596;","targetId":0,"title":"催更！ 催更！ 催更！ 重要的事说三遍！","typeId":1,"userId":58211471},{"childResourceId":0,"childResourceInfo":"","contentId":26993460,"creationDate":1513916758000,"deviceInfo":"","formart":true,"groupId":2230650,"id":20800564,"isAuthor":0,"isEnabled":1,"isLong":0,"isPrime":0,"isTop":0,"lastAuthorReplyId":0,"lastReplyDate":1513916758000,"marks":{"headImgUrl":"http://img.17k.com/avatar/2016/154/45159154/20160228100611844-1517033527000_50.jpg","isSubMonth":0,"monthEndTime":"2018-02-27 21:22:26","nickName":"%E9%A3%9E%E9%9B%AA%E4%B9%B1%E6%B8%85%E9%A3%8E","nikeName":"飞雪乱清风","userId":45159154,"vipLevel":0},"platformId":0,"replyCount":0,"resourceId":2507572,"stateId":1,"summary":"<a target='_blank' href='http://www.17k.com/book/2677053.html'>《魔妄》</a>来访，午好，微凉，冬至快乐","targetId":0,"title":"《魔妄》来访，午好，微凉，冬至快乐","typeId":1,"userId":45159154},{"childResourceId":0,"childResourceInfo":"","contentId":26910772,"creationDate":1512017300000,"deviceInfo":"","formart":true,"groupId":2230650,"id":20734260,"isAuthor":0,"isEnabled":1,"isLong":0,"isPrime":0,"isTop":0,"lastAuthorReplyId":0,"lastReplyDate":1512017300000,"marks":{"headImgUrl":"http://img.17k.com/avatar/2017/493/46396493/20171126200852546-1511698132000_50.jpg","isSubMonth":0,"monthEndTime":"2018-01-16 23:07:05","nickName":"%E6%9C%AA%E6%9D%A5%E8%80%81%E9%BC%A0","nikeName":"未来老鼠","userId":46396493,"vipLevel":0},"platformId":0,"replyCount":0,"resourceId":2507572,"stateId":1,"summary":"嗷嗷，很细腻，很好看，喜欢大大的文风<a target='_blank' href='http://www.17k.com/book/2725309.html'>《半米阳光蓝山南》</a>来访","targetId":0,"title":"嗷嗷，很细腻，很好看，喜欢大大的文风《半","typeId":1,"userId":46396493},{"childResourceId":0,"childResourceInfo":"","contentId":26808884,"creationDate":1509413006000,"deviceInfo":"","formart":true,"groupId":2230650,"id":20667444,"isAuthor":0,"isEnabled":1,"isLong":0,"isPrime":0,"isTop":0,"lastAuthorReplyId":0,"lastReplyDate":1509413006000,"marks":{"headImgUrl":"http://img.17k.com/avatar/2017/055/57024055/20170909081632351-1505432438000_50.jpg","isSubMonth":0,"nickName":"%E6%9D%8E%E6%97%A0%E5%91%BD","nikeName":"李无命","userId":57024055,"vipLevel":0},"platformId":0,"replyCount":0,"resourceId":2507572,"stateId":1,"summary":"大大写得真好，<a target='_blank' href='http://www.17k.com/book/2654528.html'>《冥天楼》</a>来看书，盼回访…","targetId":0,"title":"大大写得真好，《冥天楼》来看书，盼回访…","typeId":1,"userId":57024055},{"childResourceId":0,"childResourceInfo":"","contentId":26668596,"creationDate":1505996685000,"deviceInfo":"","formart":true,"groupId":2230650,"id":20556084,"isAuthor":0,"isEnabled":1,"isLong":0,"isPrime":0,"isTop":0,"lastAuthorReplyId":0,"lastReplyDate":1505996685000,"marks":{"headImgUrl":"http://img.17k.com/user/images/avatar/default_7.jpg","isSubMonth":0,"nickName":"%E5%8C%BF%E5%90%8DE7CC36","nikeName":"匿名E7CC36","userId":43712707,"vipLevel":0},"platformId":0,"replyCount":0,"resourceId":2507572,"stateId":1,"summary":"<a target='_blank' href='http://www.17k.com/book/2650425.html'>《苍穹仙陆》</a>来访，支持，加油<a target='_blank' href='http://user.17k.com/55320913'>@夏夜微凉m</a>","targetId":0,"title":"《苍穹仙陆》来访，支持，加油@夏夜微凉m","typeId":1,"userId":43712707},{"childResourceId":0,"childResourceInfo":"","contentId":26648628,"creationDate":1505540899000,"deviceInfo":"","formart":true,"groupId":2230650,"id":20542516,"isAuthor":0,"isEnabled":1,"isLong":0,"isPrime":0,"isTop":0,"lastAuthorReplyId":0,"lastReplyDate":1505540899000,"marks":{"headImgUrl":"http://img.17k.com/avatar/2017/507/54176507/20170710135653333-1504361789000_50.jpg","isSubMonth":0,"monthEndTime":"2018-01-04 06:15:29","nickName":"%E4%BB%99%E5%89%91%E9%97%B2%E8%81%8A","nikeName":"仙剑闲聊","userId":54176507,"vipLevel":0},"platformId":2,"replyCount":0,"resourceId":2507572,"stateId":1,"summary":"<a target='_blank' href='http://www.17k.com/book/2651970.html'>《爱是漫长的等待》</a>来访已收藏，望回访，相互收藏，相互支持，加油。","targetId":0,"title":"《爱是漫长的等待》来访已收藏，望回访，相","typeId":1,"userId":54176507},{"childResourceId":0,"childResourceInfo":"","contentId":26475572,"creationDate":1503566432000,"deviceInfo":"","formart":true,"groupId":2230650,"id":20412212,"isAuthor":0,"isEnabled":1,"isLong":0,"isPrime":0,"isTop":0,"lastAuthorReplyId":0,"lastReplyDate":1503566432000,"marks":{"headImgUrl":"http://img.17k.com/user/images/avatar/default_15.jpg","isSubMonth":0,"nickName":"%E6%B5%81%E6%B5%AA%E8%80%85m","nikeName":"流浪者m","userId":49016075,"vipLevel":0},"platformId":0,"replyCount":0,"resourceId":2507572,"stateId":1,"summary":"<a target='_blank' href='http://www.17k.com/book/2637501.html'>《不死域》</a>来访，书以收藏，希望回访。","targetId":0,"title":"《不死域》来访，书以收藏，希望回访。","typeId":1,"userId":49016075}],"uri":"/topic_list"}})